…
``` r
str("imports-85.data, vec.len = 1")
```

    ##  chr "imports-85.data, vec.len = 1"

``` r
dat
```

    ## # A tibble: 205 x 26
    ##    symboling normalized_losses        make fuel_type aspiration
    ##        <dbl>             <dbl>       <chr>     <chr>      <chr>
    ##  1         3                NA alfa-romero       gas        std
    ##  2         3                NA alfa-romero       gas        std
    ##  3         1                NA alfa-romero       gas        std
    ##  4         2               164        audi       gas        std
    ##  5         2               164        audi       gas        std
    ##  6         2                NA        audi       gas        std
    ##  7         1               158        audi       gas        std
    ##  8         1                NA        audi       gas        std
    ##  9         1               158        audi       gas      turbo
    ## 10         0                NA        audi       gas      turbo
    ## # ... with 195 more rows, and 21 more variables: num_of_doors <chr>,
    ## #   body_style <chr>, drive_wheels <chr>, engine_location <chr>,
    ## #   wheel_base <dbl>, length <dbl>, width <dbl>, height <dbl>,
    ## #   curb_weight <int>, engine_type <chr>, num_of_cylinders <chr>,
    ## #   engine_size <int>, fuel_system <chr>, bore <dbl>, stroke <dbl>,
    ## #   compression_ratio <dbl>, horsepower <int>, peak_rpm <int>,
    ## #   city_mpg <int>, highway_mpg <int>, price <int>
…
         height,
         curb_weight,
         engine_size,
         bore,
         stroke,
         compression_ratio,
         horsepower,
         peak_rpm,
         city_mpg,
         highway_mpg,
         price)
qdat
```

    ## # A tibble: 160 x 14
    ##    wheel_base length width height curb_weight engine_size  bore stroke
    ##         <dbl>  <dbl> <dbl>  <dbl>       <int>       <int> <dbl>  <dbl>
    ##  1       99.8  176.6  66.2   54.3        2337         109  3.19   3.40
    ##  2       99.4  176.6  66.4   54.3        2824         136  3.19   3.40
    ##  3      105.8  192.7  71.4   55.7        2844         136  3.19   3.40
    ##  4      105.8  192.7  71.4   55.9        3086         131  3.13   3.40
    ##  5      101.2  176.8  64.8   54.3        2395         108  3.50   2.80
    ##  6      101.2  176.8  64.8   54.3        2395         108  3.50   2.80
    ##  7      101.2  176.8  64.8   54.3        2710         164  3.31   3.19
    ##  8      101.2  176.8  64.8   54.3        2765         164  3.31   3.19
    ##  9       88.4  141.1  60.3   53.2        1488          61  2.91   3.03
    ## 10       94.5  155.9  63.6   52.0        1874          90  3.03   3.11
    ## # ... with 150 more rows, and 6 more variables: compression_ratio <dbl>,
    ## #   horsepower <int>, peak_rpm <int>, city_mpg <int>, highway_mpg <int>,
    ## #   price <int>
…
